{
    "responseStatus": "PRODUCT_FOUND_RESPONSE",
    "responseMessage": "Product successfully found!",
    "sortStrategy": "relevanceblender",
    "domainCode": "com",
    "keyword": "keyboard",
    "numberOfProducts": 16,
    "numberOfSponsoredProducts": 0,
    "resultCount": 50000,
    "currentPage": 1,
    "lastPage": 20,
    "selectedCategory": "aps",
    "foundSponsoredProducts": [],
    "foundProducts": ["B079JLY5M5", "B0D8F2JDRW", "B003ELVLKU", "B07ZGDPT4M", "B0BXNGJ2LD", "B004N627KS", "B00ZYLMQH0", "B0CLLHSWRL", "B0CCZWCPRQ", "B07WJ5D3H4", "B07D34L57F", "B07NY9ZT92", "B0D3CZYCH2", "B0BTNY72VD", "B098LG3N6R", "B0B6G2XWTL"],
    "searchProductDetails": [{
        "productDescription": "Logitech MK270 Wireless Keyboard And Mouse Combo For Windows, 2.4 GHz Wireless, Compact Mouse, 8 Multimedia And Shortcut Keys, For PC, Laptop - Black",
        "asin": "B079JLY5M5",
        "countReview": 98531,
        "imgUrl": "https://m.media-amazon.com/images/I/61gSpxZTZZL._AC_UY218_.jpg",
        "price": 27.99,
        "retailPrice": 0.0,
        "productRating": "4.5 out of 5 stars",
        "prime": false,
        "dpUrl": "/Logitech-MK270-Wireless-Keyboard-Mouse/dp/B079JLY5M5/ref=sr_1_1?dib=eyJ2IjoiMSJ9.1qaJ2ERhQVj_3zA3X_pouK91oniBZFexhVCm8SEZdBHFCB8VPT1UHTu-YpdXcrWNuVYgwmcGYwRe4irkZ5MNgsVoyvao0XowA2-X4d5NHgWD5C51KQR9cFHgimnM-vfVCC64seNO18ZOUJVuA2TRrYCcWPd6PbAV-xFI7SOmKlBiuClU11hUxuyNELKoAr8P8jo7f_Omna8Fe4u8cSkrYq3-Y0btcJt_HY9h7Ibmjtk.D5vNTPqlgTkE0reRSwfmUmJcLd9Ldg0fFGAsxbbSgQE&dib_tag=se&keywords=keyboard&qid=1736428534&sr=8-1",
        "series": null,
        "deliveryMessage": "",
        "variations": [],
        "productDetails": [],
        "salesVolume": "10K+ bought in past month",
        "manufacturer": null
    }, {
        "productDescription": "NPET K10V3PRO Gaming Keyboard, RGB Backlit Keys, Spill-Resistant, Customizable Keys, Dedicated Multi-Media Keys – Black",
        "asin": "B0D8F2JDRW",
        "countReview": 22528,
        "imgUrl": "https://m.media-amazon.com/images/I/7113k0qNblL._AC_UY218_.jpg",
        "price": 12.49,
        "retailPrice": 21.99,
        "productRating": "4.4 out of 5 stars",
        "prime": false,
        "dpUrl": "/NPET-K10V3PRO-Spill-Resistant-Customizable-Multi-Media/dp/B0D8F2JDRW/ref=sr_1_2?dib=eyJ2IjoiMSJ9.1qaJ2ERhQVj_3zA3X_pouK91oniBZFexhVCm8SEZdBHFCB8VPT1UHTu-YpdXcrWNuVYgwmcGYwRe4irkZ5MNgsVoyvao0XowA2-X4d5NHgWD5C51KQR9cFHgimnM-vfVCC64seNO18ZOUJVuA2TRrYCcWPd6PbAV-xFI7SOmKlBiuClU11hUxuyNELKoAr8P8jo7f_Omna8Fe4u8cSkrYq3-Y0btcJt_HY9h7Ibmjtk.D5vNTPqlgTkE0reRSwfmUmJcLd9Ldg0fFGAsxbbSgQE&dib_tag=se&keywords=keyboard&qid=1736428534&sr=8-2",
        "series": null,
        "deliveryMessage": "",
        "variations": [],
        "productDetails": [],
        "salesVolume": "500+ bought in past month",
        "manufacturer": null
    }, {
        "productDescription": "Logitech K120 Wired Keyboard for Windows, Plug and Play, Full-Size, Spill-Resistant, Curved Space Bar, Compatible with PC, Laptop - Black",
        "asin": "B003ELVLKU",
        "countReview": 7868,
        "imgUrl": "https://m.media-amazon.com/images/I/61j3wQheLXL._AC_UY218_.jpg",
        "price": 12.34,
        "retailPrice": 12.99,
        "productRating": "4.6 out of 5 stars",
        "prime": false,
        "dpUrl": "/Logitech-920-002478-K120-USB-Keyboard/dp/B003ELVLKU/ref=sr_1_3?dib=eyJ2IjoiMSJ9.1qaJ2ERhQVj_3zA3X_pouK91oniBZFexhVCm8SEZdBHFCB8VPT1UHTu-YpdXcrWNuVYgwmcGYwRe4irkZ5MNgsVoyvao0XowA2-X4d5NHgWD5C51KQR9cFHgimnM-vfVCC64seNO18ZOUJVuA2TRrYCcWPd6PbAV-xFI7SOmKlBiuClU11hUxuyNELKoAr8P8jo7f_Omna8Fe4u8cSkrYq3-Y0btcJt_HY9h7Ibmjtk.D5vNTPqlgTkE0reRSwfmUmJcLd9Ldg0fFGAsxbbSgQE&dib_tag=se&keywords=keyboard&qid=1736428534&sr=8-3",
        "series": null,
        "deliveryMessage": "",
        "variations": [],
        "productDetails": [],
        "salesVolume": "6K+ bought in past month",
        "manufacturer": null
    }, {
        "productDescription": "SteelSeries Apex 3 RGB Gaming Keyboard – 10-Zone RGB Illumination – IP32 Water Resistant – Premium Magnetic Wrist Rest (Whisper Quiet Gaming Switch)",
        "asin": "B07ZGDPT4M",
        "countReview": 7011,
        "imgUrl": "https://m.media-amazon.com/images/I/61is2ZwnHEL._AC_UY218_.jpg",
        "price": 35.99,
        "retailPrice": 49.99,
        "productRating": "4.6 out of 5 stars",
        "prime": false,
        "dpUrl": "/SteelSeries-Apex-RGB-Gaming-Keyboard/dp/B07ZGDPT4M/ref=sr_1_4?dib=eyJ2IjoiMSJ9.1qaJ2ERhQVj_3zA3X_pouK91oniBZFexhVCm8SEZdBHFCB8VPT1UHTu-YpdXcrWNuVYgwmcGYwRe4irkZ5MNgsVoyvao0XowA2-X4d5NHgWD5C51KQR9cFHgimnM-vfVCC64seNO18ZOUJVuA2TRrYCcWPd6PbAV-xFI7SOmKlBiuClU11hUxuyNELKoAr8P8jo7f_Omna8Fe4u8cSkrYq3-Y0btcJt_HY9h7Ibmjtk.D5vNTPqlgTkE0reRSwfmUmJcLd9Ldg0fFGAsxbbSgQE&dib_tag=se&keywords=keyboard&qid=1736428534&sr=8-4",
        "series": null,
        "deliveryMessage": "",
        "variations": [],
        "productDetails": [],
        "salesVolume": "6K+ bought in past month",
        "manufacturer": null
    }, {
        "productDescription": "Rii RK907 Ultra-Slim Compact USB Wired Keyboard for Mac and PC,Windows 10/8 / 7 / Vista/XP (Black) (1PCS)",
        "asin": "B0BXNGJ2LD",
        "countReview": 903,
        "imgUrl": "https://m.media-amazon.com/images/I/611G2Fw-4PL._AC_UY218_.jpg",
        "price": 9.99,
        "retailPrice": 14.99,
        "productRating": "4.5 out of 5 stars",
        "prime": false,
        "dpUrl": "/Rii-Ultra-Slim-Compact-Keyboard-Windows/dp/B0BXNGJ2LD/ref=sr_1_5?dib=eyJ2IjoiMSJ9.1qaJ2ERhQVj_3zA3X_pouK91oniBZFexhVCm8SEZdBHFCB8VPT1UHTu-YpdXcrWNuVYgwmcGYwRe4irkZ5MNgsVoyvao0XowA2-X4d5NHgWD5C51KQR9cFHgimnM-vfVCC64seNO18ZOUJVuA2TRrYCcWPd6PbAV-xFI7SOmKlBiuClU11hUxuyNELKoAr8P8jo7f_Omna8Fe4u8cSkrYq3-Y0btcJt_HY9h7Ibmjtk.D5vNTPqlgTkE0reRSwfmUmJcLd9Ldg0fFGAsxbbSgQE&dib_tag=se&keywords=keyboard&qid=1736428534&sr=8-5",
        "series": null,
        "deliveryMessage": "",
        "variations": [],
        "productDetails": [],
        "salesVolume": "3K+ bought in past month",
        "manufacturer": null
    }, {
        "productDescription": "Logitech K270 Wireless Keyboard for Windows, 2.4 GHz Wireless, Full-Size, Number Pad, 8 Multimedia Keys, 2-Year Battery Life, Compatible with PC, Laptop, Black",
        "asin": "B004N627KS",
        "countReview": 8123,
        "imgUrl": "https://m.media-amazon.com/images/I/61qhXbkJvTL._AC_UY218_.jpg",
        "price": 24.95,
        "retailPrice": 29.99,
        "productRating": "4.4 out of 5 stars",
        "prime": false,
        "dpUrl": "/Logitech-Wireless-Keyboard-K270-Long-Range/dp/B004N627KS/ref=sr_1_6?dib=eyJ2IjoiMSJ9.1qaJ2ERhQVj_3zA3X_pouK91oniBZFexhVCm8SEZdBHFCB8VPT1UHTu-YpdXcrWNuVYgwmcGYwRe4irkZ5MNgsVoyvao0XowA2-X4d5NHgWD5C51KQR9cFHgimnM-vfVCC64seNO18ZOUJVuA2TRrYCcWPd6PbAV-xFI7SOmKlBiuClU11hUxuyNELKoAr8P8jo7f_Omna8Fe4u8cSkrYq3-Y0btcJt_HY9h7Ibmjtk.D5vNTPqlgTkE0reRSwfmUmJcLd9Ldg0fFGAsxbbSgQE&dib_tag=se&keywords=keyboard&qid=1736428534&sr=8-6",
        "series": null,
        "deliveryMessage": "",
        "variations": [],
        "productDetails": [],
        "salesVolume": "6K+ bought in past month",
        "manufacturer": null
    }, {
        "productDescription": "Dell Wired Keyboard - Black KB216 (580-ADMT)",
        "asin": "B00ZYLMQH0",
        "countReview": 36630,
        "imgUrl": "https://m.media-amazon.com/images/I/61-kTKQuDUL._AC_UY218_.jpg",
        "price": 15.49,
        "retailPrice": 0.0,
        "productRating": "4.6 out of 5 stars",
        "prime": false,
        "dpUrl": "/Dell-Wired-Keyboard-Black-580-ADMT/dp/B00ZYLMQH0/ref=sr_1_7?dib=eyJ2IjoiMSJ9.1qaJ2ERhQVj_3zA3X_pouK91oniBZFexhVCm8SEZdBHFCB8VPT1UHTu-YpdXcrWNuVYgwmcGYwRe4irkZ5MNgsVoyvao0XowA2-X4d5NHgWD5C51KQR9cFHgimnM-vfVCC64seNO18ZOUJVuA2TRrYCcWPd6PbAV-xFI7SOmKlBiuClU11hUxuyNELKoAr8P8jo7f_Omna8Fe4u8cSkrYq3-Y0btcJt_HY9h7Ibmjtk.D5vNTPqlgTkE0reRSwfmUmJcLd9Ldg0fFGAsxbbSgQE&dib_tag=se&keywords=keyboard&qid=1736428534&sr=8-7",
        "series": null,
        "deliveryMessage": "",
        "variations": [],
        "productDetails": [],
        "salesVolume": "1K+ bought in past month",
        "manufacturer": null
    }, {
        "productDescription": "AULA F99 Wireless Mechanical Keyboard,Tri-Mode BT5.0/2.4GHz/USB-C Hot Swappable Custom Keyboard,Pre-lubed Linear Switches,Gasket Structure,RGB Backlit Gaming Keyboard for PC/Tablet/PS/Xbox",
        "asin": "B0CLLHSWRL",
        "countReview": 1067,
        "imgUrl": "https://m.media-amazon.com/images/I/61K+wxYVIEL._AC_UY218_.jpg",
        "price": 66.31,
        "retailPrice": 82.89,
        "productRating": "4.6 out of 5 stars",
        "prime": false,
        "dpUrl": "/AULA-F99-Mechanical-Bluetooth-Swappable/dp/B0CLLHSWRL/ref=sr_1_8?dib=eyJ2IjoiMSJ9.1qaJ2ERhQVj_3zA3X_pouK91oniBZFexhVCm8SEZdBHFCB8VPT1UHTu-YpdXcrWNuVYgwmcGYwRe4irkZ5MNgsVoyvao0XowA2-X4d5NHgWD5C51KQR9cFHgimnM-vfVCC64seNO18ZOUJVuA2TRrYCcWPd6PbAV-xFI7SOmKlBiuClU11hUxuyNELKoAr8P8jo7f_Omna8Fe4u8cSkrYq3-Y0btcJt_HY9h7Ibmjtk.D5vNTPqlgTkE0reRSwfmUmJcLd9Ldg0fFGAsxbbSgQE&dib_tag=se&keywords=keyboard&qid=1736428534&sr=8-8",
        "series": null,
        "deliveryMessage": "",
        "variations": [],
        "productDetails": [],
        "salesVolume": "2K+ bought in past month",
        "manufacturer": null
    }, {
        "productDescription": "Rii RK100+ Multiple Color Rainbow LED Backlit Large Size USB Wired Mechanical Feeling Multimedia PC Gaming Keyboard,Office Keyboard for Working or Primer Gaming,Office Device",
        "asin": "B0CCZWCPRQ",
        "countReview": 6991,
        "imgUrl": "https://m.media-amazon.com/images/I/61jhVTLFAEL._AC_UY218_.jpg",
        "price": 16.99,
        "retailPrice": 0.0,
        "productRating": "4.4 out of 5 stars",
        "prime": false,
        "dpUrl": "/Rii-Multiple-Mechanical-Multimedia-Keyboard/dp/B0CCZWCPRQ/ref=sr_1_9?dib=eyJ2IjoiMSJ9.1qaJ2ERhQVj_3zA3X_pouK91oniBZFexhVCm8SEZdBHFCB8VPT1UHTu-YpdXcrWNuVYgwmcGYwRe4irkZ5MNgsVoyvao0XowA2-X4d5NHgWD5C51KQR9cFHgimnM-vfVCC64seNO18ZOUJVuA2TRrYCcWPd6PbAV-xFI7SOmKlBiuClU11hUxuyNELKoAr8P8jo7f_Omna8Fe4u8cSkrYq3-Y0btcJt_HY9h7Ibmjtk.D5vNTPqlgTkE0reRSwfmUmJcLd9Ldg0fFGAsxbbSgQE&dib_tag=se&keywords=keyboard&qid=1736428534&sr=8-9",
        "series": null,
        "deliveryMessage": "",
        "variations": [],
        "productDetails": [],
        "salesVolume": "5K+ bought in past month",
        "manufacturer": null
    }, {
        "productDescription": "Amazon Basics Wired Keyboard, Full-Sized, QWERTY Layout, Black",
        "asin": "B07WJ5D3H4",
        "countReview": 7475,
        "imgUrl": "https://m.media-amazon.com/images/I/71ehwfAM4-L._AC_UY218_.jpg",
        "price": 18.04,
        "retailPrice": 0.0,
        "productRating": "4.5 out of 5 stars",
        "prime": false,
        "dpUrl": "/AmazonBasics-Matte-Keyboard-QWERTY-Layout/dp/B07WJ5D3H4/ref=sr_1_10?dib=eyJ2IjoiMSJ9.1qaJ2ERhQVj_3zA3X_pouK91oniBZFexhVCm8SEZdBHFCB8VPT1UHTu-YpdXcrWNuVYgwmcGYwRe4irkZ5MNgsVoyvao0XowA2-X4d5NHgWD5C51KQR9cFHgimnM-vfVCC64seNO18ZOUJVuA2TRrYCcWPd6PbAV-xFI7SOmKlBiuClU11hUxuyNELKoAr8P8jo7f_Omna8Fe4u8cSkrYq3-Y0btcJt_HY9h7Ibmjtk.D5vNTPqlgTkE0reRSwfmUmJcLd9Ldg0fFGAsxbbSgQE&dib_tag=se&keywords=keyboard&qid=1736428534&sr=8-10",
        "series": null,
        "deliveryMessage": "",
        "variations": [],
        "productDetails": [],
        "salesVolume": "7K+ bought in past month",
        "manufacturer": null
    }, {
        "productDescription": "Arteck 2.4G Wireless Keyboard Stainless Steel Ultra Slim Full Size Keyboard with Numeric Keypad for Computer/Desktop/PC/Laptop/Surface/Smart TV and Windows 10/8/ 7 Built in Rechargeable Battery",
        "asin": "B07D34L57F",
        "countReview": 28719,
        "imgUrl": "https://m.media-amazon.com/images/I/615wODNPYJL._AC_UY218_.jpg",
        "price": 29.99,
        "retailPrice": 49.99,
        "productRating": "4.4 out of 5 stars",
        "prime": false,
        "dpUrl": "/Arteck-Wireless-Keyboard-Stainless-Rechargeable/dp/B07D34L57F/ref=sr_1_11?dib=eyJ2IjoiMSJ9.1qaJ2ERhQVj_3zA3X_pouK91oniBZFexhVCm8SEZdBHFCB8VPT1UHTu-YpdXcrWNuVYgwmcGYwRe4irkZ5MNgsVoyvao0XowA2-X4d5NHgWD5C51KQR9cFHgimnM-vfVCC64seNO18ZOUJVuA2TRrYCcWPd6PbAV-xFI7SOmKlBiuClU11hUxuyNELKoAr8P8jo7f_Omna8Fe4u8cSkrYq3-Y0btcJt_HY9h7Ibmjtk.D5vNTPqlgTkE0reRSwfmUmJcLd9Ldg0fFGAsxbbSgQE&dib_tag=se&keywords=keyboard&qid=1736428534&sr=8-11",
        "series": null,
        "deliveryMessage": "",
        "variations": [],
        "productDetails": [],
        "salesVolume": "4K+ bought in past month",
        "manufacturer": null
    }, {
        "productDescription": "Logitech G915 LIGHTSPEED RGB Mechanical Gaming Keyboard, Low Profile GL Clicky Key Switch, LIGHTSYNC RGB, Advanced LIGHTSPEED Wireless and Bluetooth Support - Clicky,Black",
        "asin": "B07NY9ZT92",
        "countReview": 14100,
        "imgUrl": "https://m.media-amazon.com/images/I/51jkxo3a7bL._AC_UY218_.jpg",
        "price": 139.94,
        "retailPrice": 249.99,
        "productRating": "4.4 out of 5 stars",
        "prime": false,
        "dpUrl": "/Logitech-Wireless-Mechanical-Gaming-Keyboard/dp/B07NY9ZT92/ref=sr_1_12?dib=eyJ2IjoiMSJ9.1qaJ2ERhQVj_3zA3X_pouK91oniBZFexhVCm8SEZdBHFCB8VPT1UHTu-YpdXcrWNuVYgwmcGYwRe4irkZ5MNgsVoyvao0XowA2-X4d5NHgWD5C51KQR9cFHgimnM-vfVCC64seNO18ZOUJVuA2TRrYCcWPd6PbAV-xFI7SOmKlBiuClU11hUxuyNELKoAr8P8jo7f_Omna8Fe4u8cSkrYq3-Y0btcJt_HY9h7Ibmjtk.D5vNTPqlgTkE0reRSwfmUmJcLd9Ldg0fFGAsxbbSgQE&dib_tag=se&keywords=keyboard&qid=1736428534&sr=8-12",
        "series": null,
        "deliveryMessage": "",
        "variations": [],
        "productDetails": [],
        "salesVolume": "1K+ bought in past month",
        "manufacturer": null
    }, {
        "productDescription": "65% Gaming Keyboard, Wired Backlit Mini Keyboard, Ultra-Compact Anti-Ghosting No-Conflict 68 Keys Membrane Gaming Wired Keyboard for PC Laptop Windows Gamer",
        "asin": "B0D3CZYCH2",
        "countReview": 302,
        "imgUrl": "https://m.media-amazon.com/images/I/61RM1rMoceL._AC_UY218_.jpg",
        "price": 15.97,
        "retailPrice": 0.0,
        "productRating": "4.2 out of 5 stars",
        "prime": false,
        "dpUrl": "/GEODMAER-Keyboard-Ultra-Compact-Anti-Ghosting-No-Conflict/dp/B0D3CZYCH2/ref=sr_1_13?dib=eyJ2IjoiMSJ9.1qaJ2ERhQVj_3zA3X_pouK91oniBZFexhVCm8SEZdBHFCB8VPT1UHTu-YpdXcrWNuVYgwmcGYwRe4irkZ5MNgsVoyvao0XowA2-X4d5NHgWD5C51KQR9cFHgimnM-vfVCC64seNO18ZOUJVuA2TRrYCcWPd6PbAV-xFI7SOmKlBiuClU11hUxuyNELKoAr8P8jo7f_Omna8Fe4u8cSkrYq3-Y0btcJt_HY9h7Ibmjtk.D5vNTPqlgTkE0reRSwfmUmJcLd9Ldg0fFGAsxbbSgQE&dib_tag=se&keywords=keyboard&qid=1736428534&sr=8-13",
        "series": null,
        "deliveryMessage": "",
        "variations": [],
        "productDetails": [],
        "salesVolume": "3K+ bought in past month",
        "manufacturer": null
    }, {
        "productDescription": "Logitech Wave Keys Wireless Ergonomic Keyboard with Cushioned Palm Rest, Comfortable Natural Typing, Easy-Switch, Bluetooth, Logi Bolt Receiver, for Multi-OS, Windows/Mac - Graphite",
        "asin": "B0BTNY72VD",
        "countReview": 1855,
        "imgUrl": "https://m.media-amazon.com/images/I/71Yp7pxBFOL._AC_UY218_.jpg",
        "price": 59.99,
        "retailPrice": 0.0,
        "productRating": "4.3 out of 5 stars",
        "prime": false,
        "dpUrl": "/Logitech-Ergonomic-Cushioned-Comfortable-Easy-Switch/dp/B0BTNY72VD/ref=sr_1_14?dib=eyJ2IjoiMSJ9.1qaJ2ERhQVj_3zA3X_pouK91oniBZFexhVCm8SEZdBHFCB8VPT1UHTu-YpdXcrWNuVYgwmcGYwRe4irkZ5MNgsVoyvao0XowA2-X4d5NHgWD5C51KQR9cFHgimnM-vfVCC64seNO18ZOUJVuA2TRrYCcWPd6PbAV-xFI7SOmKlBiuClU11hUxuyNELKoAr8P8jo7f_Omna8Fe4u8cSkrYq3-Y0btcJt_HY9h7Ibmjtk.D5vNTPqlgTkE0reRSwfmUmJcLd9Ldg0fFGAsxbbSgQE&dib_tag=se&keywords=keyboard&qid=1736428534&sr=8-14",
        "series": null,
        "deliveryMessage": "",
        "variations": [],
        "productDetails": [],
        "salesVolume": "4K+ bought in past month",
        "manufacturer": null
    }, {
        "productDescription": "MageGee Portable 60% Mechanical Gaming Keyboard, MK-Box LED Backlit Compact 68 Keys Mini Wired Office Keyboard with Red Switch for Windows Laptop PC Mac - Black/Grey",
        "asin": "B098LG3N6R",
        "countReview": 8537,
        "imgUrl": "https://m.media-amazon.com/images/I/61Q56A7UfNL._AC_UY218_.jpg",
        "price": 29.99,
        "retailPrice": 0.0,
        "productRating": "4.4 out of 5 stars",
        "prime": false,
        "dpUrl": "/Portable-Mechanical-Keyboard-MageGee-Backlit/dp/B098LG3N6R/ref=sr_1_15?dib=eyJ2IjoiMSJ9.1qaJ2ERhQVj_3zA3X_pouK91oniBZFexhVCm8SEZdBHFCB8VPT1UHTu-YpdXcrWNuVYgwmcGYwRe4irkZ5MNgsVoyvao0XowA2-X4d5NHgWD5C51KQR9cFHgimnM-vfVCC64seNO18ZOUJVuA2TRrYCcWPd6PbAV-xFI7SOmKlBiuClU11hUxuyNELKoAr8P8jo7f_Omna8Fe4u8cSkrYq3-Y0btcJt_HY9h7Ibmjtk.D5vNTPqlgTkE0reRSwfmUmJcLd9Ldg0fFGAsxbbSgQE&dib_tag=se&keywords=keyboard&qid=1736428534&sr=8-15",
        "series": null,
        "deliveryMessage": "",
        "variations": [],
        "productDetails": [],
        "salesVolume": "3K+ bought in past month",
        "manufacturer": null
    }, {
        "productDescription": "MOFII Wireless Keyboard and Mouse Combo,2.4GHz Retro Full-Size Keyboard with Number Pad and Cute Mouse for Computer PC Desktops Laptop WindowsxP/7/8/10(Milk Tea Colorful-B)",
        "asin": "B0B6G2XWTL",
        "countReview": 6778,
        "imgUrl": "https://m.media-amazon.com/images/I/715mkYSaJLL._AC_UY218_.jpg",
        "price": 39.99,
        "retailPrice": 0.0,
        "productRating": "4.3 out of 5 stars",
        "prime": false,
        "dpUrl": "/MOFII-Wireless-Full-Size-WindowsxP-Colorful-B/dp/B0B6G2XWTL/ref=sr_1_16?dib=eyJ2IjoiMSJ9.1qaJ2ERhQVj_3zA3X_pouK91oniBZFexhVCm8SEZdBHFCB8VPT1UHTu-YpdXcrWNuVYgwmcGYwRe4irkZ5MNgsVoyvao0XowA2-X4d5NHgWD5C51KQR9cFHgimnM-vfVCC64seNO18ZOUJVuA2TRrYCcWPd6PbAV-xFI7SOmKlBiuClU11hUxuyNELKoAr8P8jo7f_Omna8Fe4u8cSkrYq3-Y0btcJt_HY9h7Ibmjtk.D5vNTPqlgTkE0reRSwfmUmJcLd9Ldg0fFGAsxbbSgQE&dib_tag=se&keywords=keyboard&qid=1736428534&sr=8-16",
        "series": null,
        "deliveryMessage": "",
        "variations": [],
        "productDetails": [],
        "salesVolume": "1K+ bought in past month",
        "manufacturer": null
    }],
    "categories": ["PC Gaming Keyboards", "Computer Keyboards, Mice & Accessories", "Computer Keyboards", "Computer Keyboard & Mouse Combos", "Mac Games & Accessories", "Mac Gaming Keyboards"],
    "starFilterParam": {},
    "similarKeywords": [{
        "keyword": "keyboard piano",
        "url": "/s?k=keyboard+piano&ref=rsl_sug_0_0&pd_rd_w=YvvFi&content-id=amzn1.sym.cbdf6bba-7ab9-4372-9637-a37602620190:amzn1.sym.cbdf6bba-7ab9-4372-9637-a37602620190&pf_rd_p=cbdf6bba-7ab9-4372-9637-a37602620190&pf_rd_r=4DEP0Z3R48A13R31QNJ8&pd_rd_wg=9Hh1o&pd_rd_r=a5f5b200-c87e-4684-9cb3-1ebf6f6a2b2f&qid=1736428534"
    }, {
        "keyword": "keyboard wireless",
        "url": "/s?k=keyboard+wireless&ref=rsl_sug_0_3&pd_rd_w=YvvFi&content-id=amzn1.sym.cbdf6bba-7ab9-4372-9637-a37602620190:amzn1.sym.cbdf6bba-7ab9-4372-9637-a37602620190&pf_rd_p=cbdf6bba-7ab9-4372-9637-a37602620190&pf_rd_r=4DEP0Z3R48A13R31QNJ8&pd_rd_wg=9Hh1o&pd_rd_r=a5f5b200-c87e-4684-9cb3-1ebf6f6a2b2f&qid=1736428534"
    }, {
        "keyword": "mouse",
        "url": "/s?k=mouse&ref=rsl_sug_0_1&pd_rd_w=YvvFi&content-id=amzn1.sym.cbdf6bba-7ab9-4372-9637-a37602620190:amzn1.sym.cbdf6bba-7ab9-4372-9637-a37602620190&pf_rd_p=cbdf6bba-7ab9-4372-9637-a37602620190&pf_rd_r=4DEP0Z3R48A13R31QNJ8&pd_rd_wg=9Hh1o&pd_rd_r=a5f5b200-c87e-4684-9cb3-1ebf6f6a2b2f&qid=1736428534"
    }, {
        "keyword": "wireless keyboard",
        "url": "/s?k=wireless+keyboard&ref=rsl_sug_0_4&pd_rd_w=YvvFi&content-id=amzn1.sym.cbdf6bba-7ab9-4372-9637-a37602620190:amzn1.sym.cbdf6bba-7ab9-4372-9637-a37602620190&pf_rd_p=cbdf6bba-7ab9-4372-9637-a37602620190&pf_rd_r=4DEP0Z3R48A13R31QNJ8&pd_rd_wg=9Hh1o&pd_rd_r=a5f5b200-c87e-4684-9cb3-1ebf6f6a2b2f&qid=1736428534"
    }, {
        "keyword": "gaming keyboard",
        "url": "/s?k=gaming+keyboard&ref=rsl_sug_0_2&pd_rd_w=YvvFi&content-id=amzn1.sym.cbdf6bba-7ab9-4372-9637-a37602620190:amzn1.sym.cbdf6bba-7ab9-4372-9637-a37602620190&pf_rd_p=cbdf6bba-7ab9-4372-9637-a37602620190&pf_rd_r=4DEP0Z3R48A13R31QNJ8&pd_rd_wg=9Hh1o&pd_rd_r=a5f5b200-c87e-4684-9cb3-1ebf6f6a2b2f&qid=1736428534"
    }, {
        "keyword": "keyboard mouse combo",
        "url": "/s?k=keyboard+mouse+combo&ref=rsl_sug_0_5&pd_rd_w=YvvFi&content-id=amzn1.sym.cbdf6bba-7ab9-4372-9637-a37602620190:amzn1.sym.cbdf6bba-7ab9-4372-9637-a37602620190&pf_rd_p=cbdf6bba-7ab9-4372-9637-a37602620190&pf_rd_r=4DEP0Z3R48A13R31QNJ8&pd_rd_wg=9Hh1o&pd_rd_r=a5f5b200-c87e-4684-9cb3-1ebf6f6a2b2f&qid=1736428534"
    }]
}